src/wave_cpu.vcd
$date
	Thu Dec  7 21:39:15 2023
$end
$version
	Icarus Verilog
$end
$timescale
	1ps
$end
$scope module tb $end
$var wire 32 ! tb_s10 [31:0] $end
$var wire 32 " tb_s11 [31:0] $end
$var wire 32 # tb_t2 [31:0] $end
$var wire 32 $ tb_t3 [31:0] $end
$var wire 32 % tb_x10 [31:0] $end
$var wire 32 & tb_x11 [31:0] $end
$var wire 2 ' tmp_value [1:0] $end
$var reg 1 ( clk $end
$var reg 1 ) rst_n $end
$scope module MU_CPU $end
$var wire 32 * addr_bus_mas [31:0] $end
$var wire 1 ( clk $end
$var wire 32 + data_bus_mas [31:0] $end
$var wire 32 , data_bus_slv [31:0] $end
$var wire 32 - mem_in [31:0] $end
$var wire 32 . offset [31:0] $end
$var wire 1 ) rst_n $end
$var wire 32 / set_pc [31:0] $end
$var wire 1 0 zero $end
$var wire 1 1 we_ctrl_slv $end
$var wire 1 2 valid_ctrl_ram $end
$var wire 2 3 tmp_value [1:0] $end
$var wire 32 4 rs2_data [31:0] $end
$var wire 5 5 rs2 [4:0] $end
$var wire 32 6 rs1_data [31:0] $end
$var wire 5 7 rs1 [4:0] $end
$var wire 2 8 reg_write [1:0] $end
$var wire 5 9 rd [4:0] $end
$var wire 32 : pc4 [31:0] $end
$var wire 32 ; next_pc [31:0] $end
$var wire 1 < mem_we_ctrl $end
$var wire 1 = mem_valid_ctrl $end
$var wire 3 > mem_size [2:0] $end
$var wire 32 ? instruction [31:0] $end
$var wire 32 @ immediate [31:0] $end
$var wire 3 A imm_op [2:0] $end
$var wire 32 B curr_pc [31:0] $end
$var wire 3 C branch [2:0] $end
$var wire 2 D alu_src [1:0] $end
$var wire 32 E alu_out [31:0] $end
$var wire 4 F alu_op [3:0] $end
$var wire 32 G addr_bus_slv [31:0] $end
$scope module alu $end
$var wire 1 0 zero $end
$var wire 32 H rs2_data [31:0] $end
$var wire 32 I rs1_data [31:0] $end
$var wire 32 J immediate [31:0] $end
$var wire 32 K curr_pc [31:0] $end
$var wire 2 L alu_src [1:0] $end
$var wire 4 M alu_op [3:0] $end
$var reg 32 N alu_in1 [31:0] $end
$var reg 32 O alu_in2 [31:0] $end
$var reg 32 P alu_out [31:0] $end
$upscope $end
$scope module bus $end
$var wire 32 Q addr_bus_mas [31:0] $end
$var wire 32 R data_bus_mas [31:0] $end
$var wire 32 S data_bus_slv [31:0] $end
$var wire 1 1 we_ctrl_slv $end
$var wire 1 < we_ctrl_mas $end
$var wire 1 T valid_ctrl_slv4 $end
$var wire 1 U valid_ctrl_slv3 $end
$var wire 1 V valid_ctrl_slv2 $end
$var wire 1 2 valid_ctrl_slv1 $end
$var wire 1 = valid_ctrl_mas $end
$var wire 2 W slv_sel [1:0] $end
$var wire 32 X addr_bus_slv [31:0] $end
$upscope $end
$scope module ctrl $end
$var wire 5 Y rs2 [4:0] $end
$var wire 5 Z rs1 [4:0] $end
$var wire 5 [ rd [4:0] $end
$var wire 7 \ opcode [6:0] $end
$var wire 32 ] instruction [31:0] $end
$var wire 7 ^ funct7 [6:0] $end
$var wire 3 _ funct3 [2:0] $end
$var reg 4 ` alu_op [3:0] $end
$var reg 2 a alu_src [1:0] $end
$var reg 3 b branch [2:0] $end
$var reg 3 c imm_op [2:0] $end
$var reg 3 d mem_size [2:0] $end
$var reg 1 = mem_valid_ctrl $end
$var reg 1 < mem_we_ctrl $end
$var reg 2 e reg_write [1:0] $end
$upscope $end
$scope module imem $end
$var wire 32 f instruction [31:0] $end
$var wire 1 ) rst_n $end
$var wire 32 g curr_pc [31:0] $end
$upscope $end
$scope module imm_gen $end
$var wire 3 h imm_op [2:0] $end
$var wire 32 i instruction [31:0] $end
$var reg 32 j immediate [31:0] $end
$upscope $end
$scope module npc $end
$var wire 3 k branch [2:0] $end
$var wire 32 l offset [31:0] $end
$var wire 32 m set_pc [31:0] $end
$var wire 1 0 zero $end
$var wire 32 n pc4 [31:0] $end
$var wire 32 o curr_pc [31:0] $end
$var reg 32 p next_pc [31:0] $end
$upscope $end
$scope module pc $end
$var wire 1 ( clk $end
$var wire 32 q next_pc [31:0] $end
$var wire 1 ) rst_n $end
$var reg 32 r curr_pc [31:0] $end
$upscope $end
$scope module ram $end
$var wire 32 s addr [31:0] $end
$var wire 1 ( clk $end
$var wire 32 t data [31:0] $end
$var wire 32 u data_in [31:0] $end
$var wire 1 ) rst_n $end
$var wire 1 2 valid_ctrl $end
$var wire 1 1 we_ctrl $end
$var integer 32 v i [31:0] $end
$upscope $end
$scope module regs $end
$var wire 32 w alu_out [31:0] $end
$var wire 1 ( clk $end
$var wire 32 x mem_in [31:0] $end
$var wire 3 y mem_size [2:0] $end
$var wire 32 z pc4 [31:0] $end
$var wire 5 { rd [4:0] $end
$var wire 2 | reg_write [1:0] $end
$var wire 5 } rs1 [4:0] $end
$var wire 5 ~ rs2 [4:0] $end
$var wire 1 ) rst_n $end
$var wire 32 !" rs2_word [31:0] $end
$var wire 32 "" rs2_half [31:0] $end
$var wire 32 #" rs2_data [31:0] $end
$var wire 32 $" rs2_byte [31:0] $end
$var wire 32 %" rs1_data [31:0] $end
$var wire 32 &" rd_word [31:0] $end
$var wire 32 '" rd_half_u [31:0] $end
$var wire 32 (" rd_half [31:0] $end
$var wire 32 )" rd_data [31:0] $end
$var wire 32 *" rd_byte_u [31:0] $end
$var wire 32 +" rd_byte [31:0] $end
$upscope $end
$upscope $end
$upscope $end
$enddefinitions $end
$comment Show the parameter values. $end
$dumpall
$end
#0
$dumpvars
bx +"
b0xxxxxxxx *"
bx )"
bx ("
b0xxxxxxxxxxxxxxxx '"
bx &"
bx %"
bx $"
bx #"
bx ""
bx !"
bx ~
bx }
bx |
bx {
bx z
bx y
bx x
bx w
bx v
bx u
bx t
b0xxxxxxxxxxxxxxxxxxxxxxxxxxxxxx s
bx r
bx q
bx p
bx o
bx n
bx m
bx l
bx k
bx j
bx i
bx h
bx g
bx f
bx e
bx d
bx c
bx b
bx a
bx `
bx _
bx ^
bx ]
bx \
bx [
bx Z
bx Y
b0xxxxxxxxxxxxxxxxxxxxxxxxxxxxxx X
bx W
xV
xU
xT
bx S
bx R
bx Q
bx P
bx O
bx N
bx M
bx L
bx K
bx J
bx I
bx H
b0xxxxxxxxxxxxxxxxxxxxxxxxxxxxxx G
bx F
bx E
bx D
bx C
bx B
bx A
bx @
bx ?
bx >
x=
x<
bx ;
bx :
bx 9
bx 8
bx 7
bx 6
bx 5
bx 4
bx 3
x2
x1
x0
bx /
bx .
bx -
bx ,
bx +
bx *
1)
1(
bx '
bx &
bx %
bx $
bx #
bx "
bx !
$end
#5
0(
#10
1(
#15
0(
#20
1(
#25
0(
#30
1(
#35
0(
#40
1(
#45
0(
#50
10
0V
0U
0T
b0 G
b0 X
b0 s
b0 W
b0 *
b0 Q
b0 E
b0 P
b0 w
bz O
bz N
b0 ;
b0 p
b0 q
b0 :
b0 n
b0 z
b11111111111111111111111111111100 B
b11111111111111111111111111111100 K
b11111111111111111111111111111100 g
b11111111111111111111111111111100 o
b11111111111111111111111111111100 r
b10000000000 v
1(
0)
#55
b10000000000 v
0(
#60
1(
#65
b10000000000 v
0(
#70
1(
#75
b10000000000 v
0(
#80
1(
#85
b10000000000 v
0(
#90
1(
#95
b10000000000 v
0(
#100
bz -
bz x
bz +
bz R
bz u
bz ,
bz S
bz t
b0 +"
b0 *"
b0 ("
b0 '"
b0 $"
b0 ""
b0 )"
b0 4
b0 H
b0 #"
02
b0 &"
b0 O
b0 N
b0 !"
b0 /
b0 m
b0 6
b0 I
b0 %"
b0 F
b0 M
b0 `
b10 >
b10 d
b10 y
11
1<
0=
b10 8
b10 e
b10 |
b1 A
b1 c
b1 h
b1 D
b1 L
b1 a
b0 C
b0 b
b0 k
b0 ^
b0 5
b0 Y
b0 ~
b0 7
b0 Z
b0 }
b0 _
b101 9
b101 [
b101 {
b10011 \
b0 .
b0 l
b0 @
b0 J
b0 j
b1010010011 ?
b1010010011 ]
b1010010011 f
b1010010011 i
b100 ;
b100 p
b100 q
b100 :
b100 n
b100 z
b0 B
b0 K
b0 g
b0 o
b0 r
1(
1)
#105
0(
#110
b1 )"
00
b1 +"
b1 *"
b1 ("
b1 '"
bx 4
bx H
bx #"
b1 &"
b1 G
b1 X
b1 s
bx $"
bx ""
b1 *
b1 Q
b1 E
b1 P
b1 w
bx !"
b1 O
b1 5
b1 Y
b1 ~
b110 9
b110 [
b110 {
b1 .
b1 l
b1 @
b1 J
b1 j
b100000000001100010011 ?
b100000000001100010011 ]
b100000000001100010011 f
b100000000001100010011 i
b1000 ;
b1000 p
b1000 q
b1000 :
b1000 n
b1000 z
b100 B
b100 K
b100 g
b100 o
b100 r
1(
#115
0(
#120
b11110 )"
b11110 +"
b11110 *"
b11110 ("
b11110 '"
b11110 &"
b11110 G
b11110 X
b11110 s
b11110 *
b11110 Q
b11110 E
b11110 P
b11110 w
b11110 O
b11110 5
b11110 Y
b11110 ~
b1111 9
b1111 [
b1111 {
b11110 .
b11110 l
b11110 @
b11110 J
b11110 j
b1111000000000011110010011 ?
b1111000000000011110010011 ]
b1111000000000011110010011 f
b1111000000000011110010011 i
b1100 ;
b1100 p
b1100 q
b1100 :
b1100 n
b1100 z
b1000 B
b1000 K
b1000 g
b1000 o
b1000 r
1(
#125
0(
#130
b1 )"
b1 +"
b1 *"
b1 ("
b1 '"
b1 &"
b1 G
b1 X
b1 s
b1 *
b1 Q
b1 E
b1 P
b1 w
b1 O
b1 5
b1 Y
b1 ~
b1 9
b1 [
b1 {
b1 .
b1 l
b1 @
b1 J
b1 j
b100000000000010010011 ?
b100000000000010010011 ]
b100000000000010010011 f
b100000000000010010011 i
b10000 ;
b10000 p
b10000 q
b10000 :
b10000 n
b10000 z
b1100 B
b1100 K
b1100 g
b1100 o
b1100 r
1(
#135
0(
#140
b0 )"
10
b0 +"
b0 *"
b0 ("
b0 '"
b0 &"
b0 G
b0 X
b0 s
b0 *
b0 Q
b0 E
b0 P
b0 w
b0 O
b0 4
b0 H
b0 #"
b0 5
b0 Y
b0 ~
b1010 9
b1010 [
b1010 {
b0 .
b0 l
b0 @
b0 J
b0 j
b0 $"
b0 ""
b10100010011 ?
b10100010011 ]
b10100010011 f
b10100010011 i
b10100 ;
b10100 p
b10100 q
b0 !"
b10100 :
b10100 n
b10100 z
b10000 B
b10000 K
b10000 g
b10000 o
b10000 r
1(
#145
0(
#150
b1011 9
b1011 [
b1011 {
b10110010011 ?
b10110010011 ]
b10110010011 f
b10110010011 i
b11000 ;
b11000 p
b11000 q
b0x '
b0x 3
b11000 :
b11000 n
b11000 z
b10100 B
b10100 K
b10100 g
b10100 o
b10100 r
b0 %
1(
#155
0(
#160
bz )"
00
b11110 4
b11110 H
b11110 #"
bz +"
b0zzzzzzzz *"
bz ("
b0zzzzzzzzzzzzzzzz '"
b1 G
b1 X
b1 s
b11110 $"
b11110 ""
bz &"
b1 N
b1 *
b1 Q
b1 E
b1 P
b1 w
b11110 !"
b1 /
b1 m
b1 6
b1 I
b1 %"
b1 C
b1 b
b1 k
b11 F
b11 M
b11 `
b0 8
b0 e
b0 |
b11 A
b11 c
b11 h
b0 D
b0 L
b0 a
b11110 O
b1111 5
b1111 Y
b1111 ~
b1 7
b1 Z
b1 }
b101 _
b11000 9
b11000 [
b11000 {
b1100011 \
b11000 .
b11000 l
b11000 @
b11000 J
b11000 j
b111100001101110001100011 ?
b111100001101110001100011 ]
b111100001101110001100011 f
b111100001101110001100011 i
b11100 ;
b11100 p
b11100 q
b0 '
b0 3
b11100 :
b11100 n
b11100 z
b11000 B
b11000 K
b11000 g
b11000 o
b11000 r
b0 &
1(
#165
0(
#170
b1 )"
b1 O
b1 4
b1 H
b1 #"
b1 G
b1 X
b1 s
b1 +"
b1 *"
b1 ("
b1 '"
b1 $"
b1 ""
b0 N
b1 *
b1 Q
b1 E
b1 P
b1 w
b1 &"
b1 !"
b0 /
b0 m
b0 6
b0 I
b0 %"
b0 F
b0 M
b0 `
b10 8
b10 e
b10 |
b0 A
b0 c
b0 h
b0 C
b0 b
b0 k
b110 5
b110 Y
b110 ~
b101 7
b101 Z
b101 }
b0 _
b111 9
b111 [
b111 {
b110011 \
b0 .
b0 l
b0 @
b0 J
b0 j
b11000101000001110110011 ?
b11000101000001110110011 ]
b11000101000001110110011 f
b11000101000001110110011 i
b100000 ;
b100000 p
b100000 q
b100000 :
b100000 n
b100000 z
b11100 B
b11100 K
b11100 g
b11100 o
b11100 r
1(
#175
0(
#180
b0 4
b0 H
b0 #"
b0 $"
b0 ""
b0 O
b1 N
b0 !"
b1 /
b1 m
b1 6
b1 I
b1 %"
b1 A
b1 c
b1 h
b1 D
b1 L
b1 a
b0 5
b0 Y
b0 ~
b110 7
b110 Z
b110 }
b101 9
b101 [
b101 {
b10011 \
b110000001010010011 ?
b110000001010010011 ]
b110000001010010011 f
b110000001010010011 i
b100100 ;
b100100 p
b100100 q
b100100 :
b100100 n
b100100 z
b100000 B
b100000 K
b100000 g
b100000 o
b100000 r
b1 #
1(
#185
0(
#190
b111 7
b111 Z
b111 }
b110 9
b110 [
b110 {
b111000001100010011 ?
b111000001100010011 ]
b111000001100010011 f
b111000001100010011 i
b101000 ;
b101000 p
b101000 q
b101000 :
b101000 n
b101000 z
b100100 B
b100100 K
b100100 g
b100100 o
b100100 r
1(
#195
0(
#200
b10 )"
b10 +"
b10 *"
b10 ("
b10 '"
b1 4
b1 H
b1 #"
b10 &"
b10 G
b10 X
b10 s
b1 $"
b1 ""
b10 *
b10 Q
b10 E
b10 P
b10 w
b1 !"
b1 O
b1 5
b1 Y
b1 ~
b1 7
b1 Z
b1 }
b1 9
b1 [
b1 {
b1 .
b1 l
b1 @
b1 J
b1 j
b100001000000010010011 ?
b100001000000010010011 ]
b100001000000010010011 f
b100001000000010010011 i
b101100 ;
b101100 p
b101100 q
b101100 :
b101100 n
b101100 z
b101000 B
b101000 K
b101000 g
b101000 o
b101000 r
1(
#205
0(
#210
b110000 )"
b11 W
b110000 +"
b110000 *"
b110000 ("
b110000 '"
b1 8
b1 e
b1 |
b101 A
b101 c
b101 h
b10 D
b10 L
b10 a
b1101 F
b1101 M
b1101 `
b11 C
b11 b
b11 k
b11111111111111111111111111101100 O
b110000 &"
b111111111111111111111111101100 G
b111111111111111111111111101100 X
b111111111111111111111111101100 s
bx 4
bx H
bx #"
b1111111 ^
b1101 5
b1101 Y
b1101 ~
b11111 7
b11111 Z
b11111 }
b111 _
b0 9
b0 [
b0 {
b1101111 \
b11111111111111111111111111101100 .
b11111111111111111111111111101100 l
b11111111111111111111111111101100 @
b11111111111111111111111111101100 J
b11111111111111111111111111101100 j
b11111111111111111111111111101100 *
b11111111111111111111111111101100 Q
b11111111111111111111111111101100 E
b11111111111111111111111111101100 P
b11111111111111111111111111101100 w
bx $"
bx ""
b11111110110111111111000001101111 ?
b11111110110111111111000001101111 ]
b11111110110111111111000001101111 f
b11111110110111111111000001101111 i
b101100 N
b11000 ;
b11000 p
b11000 q
bx /
bx m
bx 6
bx I
bx %"
bx !"
b110000 :
b110000 n
b110000 z
b101100 B
b101100 K
b101100 g
b101100 o
b101100 r
1(
#215
0(
#220
00
bz )"
b11110 4
b11110 H
b11110 #"
b1 G
b1 X
b1 s
b0 W
b11110 $"
b11110 ""
b1 *
b1 Q
b1 E
b1 P
b1 w
bz +"
b0zzzzzzzz *"
bz ("
b0zzzzzzzzzzzzzzzz '"
b11110 !"
b10 /
b10 m
b10 6
b10 I
b10 %"
b1 C
b1 b
b1 k
b11 F
b11 M
b11 `
b0 8
b0 e
b0 |
b11 A
b11 c
b11 h
b0 D
b0 L
b0 a
b11110 O
bz &"
b0 ^
b1111 5
b1111 Y
b1111 ~
b1 7
b1 Z
b1 }
b101 _
b11000 9
b11000 [
b11000 {
b1100011 \
b11000 .
b11000 l
b11000 @
b11000 J
b11000 j
b111100001101110001100011 ?
b111100001101110001100011 ]
b111100001101110001100011 f
b111100001101110001100011 i
b10 N
b11100 ;
b11100 p
b11100 q
b11100 :
b11100 n
b11100 z
b11000 B
b11000 K
b11000 g
b11000 o
b11000 r
1(
#225
0(
#230
b10 )"
b1 O
b1 4
b1 H
b1 #"
b10 G
b10 X
b10 s
b10 +"
b10 *"
b10 ("
b10 '"
b1 $"
b1 ""
b1 N
b10 *
b10 Q
b10 E
b10 P
b10 w
b10 &"
b1 !"
b1 /
b1 m
b1 6
b1 I
b1 %"
b0 F
b0 M
b0 `
b10 8
b10 e
b10 |
b0 A
b0 c
b0 h
b0 C
b0 b
b0 k
b110 5
b110 Y
b110 ~
b101 7
b101 Z
b101 }
b0 _
b111 9
b111 [
b111 {
b110011 \
b0 .
b0 l
b0 @
b0 J
b0 j
b11000101000001110110011 ?
b11000101000001110110011 ]
b11000101000001110110011 f
b11000101000001110110011 i
b100000 ;
b100000 p
b100000 q
b100000 :
b100000 n
b100000 z
b11100 B
b11100 K
b11100 g
b11100 o
b11100 r
1(
#235
0(
#240
b1 )"
b1 +"
b1 *"
b1 ("
b1 '"
b1 &"
b1 G
b1 X
b1 s
b0 4
b0 H
b0 #"
b1 *
b1 Q
b1 E
b1 P
b1 w
b0 $"
b0 ""
b0 O
b0 !"
b1 A
b1 c
b1 h
b1 D
b1 L
b1 a
b0 5
b0 Y
b0 ~
b110 7
b110 Z
b110 }
b101 9
b101 [
b101 {
b10011 \
b110000001010010011 ?
b110000001010010011 ]
b110000001010010011 f
b110000001010010011 i
b100100 ;
b100100 p
b100100 q
b100100 :
b100100 n
b100100 z
b100000 B
b100000 K
b100000 g
b100000 o
b100000 r
b10 #
1(
#245
0(
#250
b10 )"
b10 +"
b10 *"
b10 ("
b10 '"
b10 &"
b10 G
b10 X
b10 s
b10 *
b10 Q
b10 E
b10 P
b10 w
b10 N
b10 /
b10 m
b10 6
b10 I
b10 %"
b111 7
b111 Z
b111 }
b110 9
b110 [
b110 {
b111000001100010011 ?
b111000001100010011 ]
b111000001100010011 f
b111000001100010011 i
b101000 ;
b101000 p
b101000 q
b101000 :
b101000 n
b101000 z
b100100 B
b100100 K
b100100 g
b100100 o
b100100 r
1(
#255
0(
#260
b11 )"
b11 +"
b11 *"
b11 ("
b11 '"
b10 4
b10 H
b10 #"
b11 &"
b11 G
b11 X
b11 s
b10 $"
b10 ""
b11 *
b11 Q
b11 E
b11 P
b11 w
b10 !"
b1 O
b1 5
b1 Y
b1 ~
b1 7
b1 Z
b1 }
b1 9
b1 [
b1 {
b1 .
b1 l
b1 @
b1 J
b1 j
b100001000000010010011 ?
b100001000000010010011 ]
b100001000000010010011 f
b100001000000010010011 i
b101100 ;
b101100 p
b101100 q
b101100 :
b101100 n
b101100 z
b101000 B
b101000 K
b101000 g
b101000 o
b101000 r
1(
#265
0(
#270
b110000 )"
b11 W
b110000 +"
b110000 *"
b110000 ("
b110000 '"
b1 8
b1 e
b1 |
b101 A
b101 c
b101 h
b10 D
b10 L
b10 a
b1101 F
b1101 M
b1101 `
b11 C
b11 b
b11 k
b11111111111111111111111111101100 O
b110000 &"
b111111111111111111111111101100 G
b111111111111111111111111101100 X
b111111111111111111111111101100 s
bx 4
bx H
bx #"
b1111111 ^
b1101 5
b1101 Y
b1101 ~
b11111 7
b11111 Z
b11111 }
b111 _
b0 9
b0 [
b0 {
b1101111 \
b11111111111111111111111111101100 .
b11111111111111111111111111101100 l
b11111111111111111111111111101100 @
b11111111111111111111111111101100 J
b11111111111111111111111111101100 j
b11111111111111111111111111101100 *
b11111111111111111111111111101100 Q
b11111111111111111111111111101100 E
b11111111111111111111111111101100 P
b11111111111111111111111111101100 w
bx $"
bx ""
b11111110110111111111000001101111 ?
b11111110110111111111000001101111 ]
b11111110110111111111000001101111 f
b11111110110111111111000001101111 i
b101100 N
b11000 ;
b11000 p
b11000 q
bx /
bx m
bx 6
bx I
bx %"
bx !"
b110000 :
b110000 n
b110000 z
b101100 B
b101100 K
b101100 g
b101100 o
b101100 r
1(
#275
0(
#280
00
bz )"
b11110 4
b11110 H
b11110 #"
b1 G
b1 X
b1 s
b0 W
b11110 $"
b11110 ""
b1 *
b1 Q
b1 E
b1 P
b1 w
bz +"
b0zzzzzzzz *"
bz ("
b0zzzzzzzzzzzzzzzz '"
b11110 !"
b11 /
b11 m
b11 6
b11 I
b11 %"
b1 C
b1 b
b1 k
b11 F
b11 M
b11 `
b0 8
b0 e
b0 |
b11 A
b11 c
b11 h
b0 D
b0 L
b0 a
b11110 O
bz &"
b0 ^
b1111 5
b1111 Y
b1111 ~
b1 7
b1 Z
b1 }
b101 _
b11000 9
b11000 [
b11000 {
b1100011 \
b11000 .
b11000 l
b11000 @
b11000 J
b11000 j
b111100001101110001100011 ?
b111100001101110001100011 ]
b111100001101110001100011 f
b111100001101110001100011 i
b11 N
b11100 ;
b11100 p
b11100 q
b11100 :
b11100 n
b11100 z
b11000 B
b11000 K
b11000 g
b11000 o
b11000 r
1(
#285
0(
#290
b11 )"
b10 O
b10 4
b10 H
b10 #"
b11 G
b11 X
b11 s
b11 +"
b11 *"
b11 ("
b11 '"
b10 $"
b10 ""
b1 N
b11 *
b11 Q
b11 E
b11 P
b11 w
b11 &"
b10 !"
b1 /
b1 m
b1 6
b1 I
b1 %"
b0 F
b0 M
b0 `
b10 8
b10 e
b10 |
b0 A
b0 c
b0 h
b0 C
b0 b
b0 k
b110 5
b110 Y
b110 ~
b101 7
b101 Z
b101 }
b0 _
b111 9
b111 [
b111 {
b110011 \
b0 .
b0 l
b0 @
b0 J
b0 j
b11000101000001110110011 ?
b11000101000001110110011 ]
b11000101000001110110011 f
b11000101000001110110011 i
b100000 ;
b100000 p
b100000 q
b100000 :
b100000 n
b100000 z
b11100 B
b11100 K
b11100 g
b11100 o
b11100 r
1(
#295
0(
#300
b10 )"
b10 +"
b10 *"
b10 ("
b10 '"
b10 &"
b10 G
b10 X
b10 s
b0 4
b0 H
b0 #"
b10 *
b10 Q
b10 E
b10 P
b10 w
b0 $"
b0 ""
b0 O
b10 N
b0 !"
b10 /
b10 m
b10 6
b10 I
b10 %"
b1 A
b1 c
b1 h
b1 D
b1 L
b1 a
b0 5
b0 Y
b0 ~
b110 7
b110 Z
b110 }
b101 9
b101 [
b101 {
b10011 \
b110000001010010011 ?
b110000001010010011 ]
b110000001010010011 f
b110000001010010011 i
b100100 ;
b100100 p
b100100 q
b100100 :
b100100 n
b100100 z
b100000 B
b100000 K
b100000 g
b100000 o
b100000 r
b11 #
1(
#305
0(
#310
b11 )"
b11 +"
b11 *"
b11 ("
b11 '"
b11 &"
b11 G
b11 X
b11 s
b11 *
b11 Q
b11 E
b11 P
b11 w
b11 N
b11 /
b11 m
b11 6
b11 I
b11 %"
b111 7
b111 Z
b111 }
b110 9
b110 [
b110 {
b111000001100010011 ?
b111000001100010011 ]
b111000001100010011 f
b111000001100010011 i
b101000 ;
b101000 p
b101000 q
b101000 :
b101000 n
b101000 z
b100100 B
b100100 K
b100100 g
b100100 o
b100100 r
1(
#315
0(
#320
b100 )"
b100 +"
b100 *"
b100 ("
b100 '"
b11 4
b11 H
b11 #"
b100 &"
b100 G
b100 X
b100 s
b11 $"
b11 ""
b100 *
b100 Q
b100 E
b100 P
b100 w
b11 !"
b1 O
b1 5
b1 Y
b1 ~
b1 7
b1 Z
b1 }
b1 9
b1 [
b1 {
b1 .
b1 l
b1 @
b1 J
b1 j
b100001000000010010011 ?
b100001000000010010011 ]
b100001000000010010011 f
b100001000000010010011 i
b101100 ;
b101100 p
b101100 q
b101100 :
b101100 n
b101100 z
b101000 B
b101000 K
b101000 g
b101000 o
b101000 r
1(
#325
0(
#330
b110000 )"
b11 W
b110000 +"
b110000 *"
b110000 ("
b110000 '"
b1 8
b1 e
b1 |
b101 A
b101 c
b101 h
b10 D
b10 L
b10 a
b1101 F
b1101 M
b1101 `
b11 C
b11 b
b11 k
b11111111111111111111111111101100 O
b110000 &"
b111111111111111111111111101100 G
b111111111111111111111111101100 X
b111111111111111111111111101100 s
bx 4
bx H
bx #"
b1111111 ^
b1101 5
b1101 Y
b1101 ~
b11111 7
b11111 Z
b11111 }
b111 _
b0 9
b0 [
b0 {
b1101111 \
b11111111111111111111111111101100 .
b11111111111111111111111111101100 l
b11111111111111111111111111101100 @
b11111111111111111111111111101100 J
b11111111111111111111111111101100 j
b11111111111111111111111111101100 *
b11111111111111111111111111101100 Q
b11111111111111111111111111101100 E
b11111111111111111111111111101100 P
b11111111111111111111111111101100 w
bx $"
bx ""
b11111110110111111111000001101111 ?
b11111110110111111111000001101111 ]
b11111110110111111111000001101111 f
b11111110110111111111000001101111 i
b101100 N
b11000 ;
b11000 p
b11000 q
bx /
bx m
bx 6
bx I
bx %"
bx !"
b110000 :
b110000 n
b110000 z
b101100 B
b101100 K
b101100 g
b101100 o
b101100 r
1(
#335
0(
#340
00
bz )"
b11110 4
b11110 H
b11110 #"
b1 G
b1 X
b1 s
b0 W
b11110 $"
b11110 ""
b1 *
b1 Q
b1 E
b1 P
b1 w
bz +"
b0zzzzzzzz *"
bz ("
b0zzzzzzzzzzzzzzzz '"
b11110 !"
b100 /
b100 m
b100 6
b100 I
b100 %"
b1 C
b1 b
b1 k
b11 F
b11 M
b11 `
b0 8
b0 e
b0 |
b11 A
b11 c
b11 h
b0 D
b0 L
b0 a
b11110 O
bz &"
b0 ^
b1111 5
b1111 Y
b1111 ~
b1 7
b1 Z
b1 }
b101 _
b11000 9
b11000 [
b11000 {
b1100011 \
b11000 .
b11000 l
b11000 @
b11000 J
b11000 j
b111100001101110001100011 ?
b111100001101110001100011 ]
b111100001101110001100011 f
b111100001101110001100011 i
b100 N
b11100 ;
b11100 p
b11100 q
b11100 :
b11100 n
b11100 z
b11000 B
b11000 K
b11000 g
b11000 o
b11000 r
1(
#345
0(
#350
b101 )"
b11 O
b11 4
b11 H
b11 #"
b101 G
b101 X
b101 s
b101 +"
b101 *"
b101 ("
b101 '"
b11 $"
b11 ""
b10 N
b101 *
b101 Q
b101 E
b101 P
b101 w
b101 &"
b11 !"
b10 /
b10 m
b10 6
b10 I
b10 %"
b0 F
b0 M
b0 `
b10 8
b10 e
b10 |
b0 A
b0 c
b0 h
b0 C
b0 b
b0 k
b110 5
b110 Y
b110 ~
b101 7
b101 Z
b101 }
b0 _
b111 9
b111 [
b111 {
b110011 \
b0 .
b0 l
b0 @
b0 J
b0 j
b11000101000001110110011 ?
b11000101000001110110011 ]
b11000101000001110110011 f
b11000101000001110110011 i
b100000 ;
b100000 p
b100000 q
b100000 :
b100000 n
b100000 z
b11100 B
b11100 K
b11100 g
b11100 o
b11100 r
1(
#355
0(
#360
b11 )"
b11 +"
b11 *"
b11 ("
b11 '"
b11 &"
b11 G
b11 X
b11 s
b0 4
b0 H
b0 #"
b11 *
b11 Q
b11 E
b11 P
b11 w
b0 $"
b0 ""
b0 O
b11 N
b0 !"
b11 /
b11 m
b11 6
b11 I
b11 %"
b1 A
b1 c
b1 h
b1 D
b1 L
b1 a
b0 5
b0 Y
b0 ~
b110 7
b110 Z
b110 }
b101 9
b101 [
b101 {
b10011 \
b110000001010010011 ?
b110000001010010011 ]
b110000001010010011 f
b110000001010010011 i
b100100 ;
b100100 p
b100100 q
b100100 :
b100100 n
b100100 z
b100000 B
b100000 K
b100000 g
b100000 o
b100000 r
b101 #
1(
#365
0(
#370
b101 )"
b101 +"
b101 *"
b101 ("
b101 '"
b101 &"
b101 G
b101 X
b101 s
b101 *
b101 Q
b101 E
b101 P
b101 w
b101 N
b101 /
b101 m
b101 6
b101 I
b101 %"
b111 7
b111 Z
b111 }
b110 9
b110 [
b110 {
b111000001100010011 ?
b111000001100010011 ]
b111000001100010011 f
b111000001100010011 i
b101000 ;
b101000 p
b101000 q
b101000 :
b101000 n
b101000 z
b100100 B
b100100 K
b100100 g
b100100 o
b100100 r
1(
#375
0(
#380
b101 )"
b101 +"
b101 *"
b101 ("
b101 '"
b100 4
b100 H
b100 #"
b101 &"
b101 G
b101 X
b101 s
b100 $"
b100 ""
b100 N
b101 *
b101 Q
b101 E
b101 P
b101 w
b100 !"
b100 /
b100 m
b100 6
b100 I
b100 %"
b1 O
b1 5
b1 Y
b1 ~
b1 7
b1 Z
b1 }
b1 9
b1 [
b1 {
b1 .
b1 l
b1 @
b1 J
b1 j
b100001000000010010011 ?
b100001000000010010011 ]
b100001000000010010011 f
b100001000000010010011 i
b101100 ;
b101100 p
b101100 q
b101100 :
b101100 n
b101100 z
b101000 B
b101000 K
b101000 g
b101000 o
b101000 r
1(
#385
0(
#390
b110000 )"
b11 W
b110000 +"
b110000 *"
b110000 ("
b110000 '"
b1 8
b1 e
b1 |
b101 A
b101 c
b101 h
b10 D
b10 L
b10 a
b1101 F
b1101 M
b1101 `
b11 C
b11 b
b11 k
b11111111111111111111111111101100 O
b110000 &"
b111111111111111111111111101100 G
b111111111111111111111111101100 X
b111111111111111111111111101100 s
bx 4
bx H
bx #"
b1111111 ^
b1101 5
b1101 Y
b1101 ~
b11111 7
b11111 Z
b11111 }
b111 _
b0 9
b0 [
b0 {
b1101111 \
b11111111111111111111111111101100 .
b11111111111111111111111111101100 l
b11111111111111111111111111101100 @
b11111111111111111111111111101100 J
b11111111111111111111111111101100 j
b11111111111111111111111111101100 *
b11111111111111111111111111101100 Q
b11111111111111111111111111101100 E
b11111111111111111111111111101100 P
b11111111111111111111111111101100 w
bx $"
bx ""
b11111110110111111111000001101111 ?
b11111110110111111111000001101111 ]
b11111110110111111111000001101111 f
b11111110110111111111000001101111 i
b101100 N
b11000 ;
b11000 p
b11000 q
bx /
bx m
bx 6
bx I
bx %"
bx !"
b110000 :
b110000 n
b110000 z
b101100 B
b101100 K
b101100 g
b101100 o
b101100 r
1(
#395
0(
